simulation/DRAMSim2_master_with_data_handling/fifo_demo/Fifo.vcd
$timescale 1ps $end
$scope module Fifo $end
$var wire 1 ! clk $end
$var wire 1 " reset $end
$var wire 1 # is_empty $end
$var wire 1 $ io_deq_val $end
$var wire 1 % io_deq_rdy $end
$var wire 1 & do_deq $end
$var wire 1 ' io_enq_val $end
$var wire 1 ( io_enq_rdy $end
$var wire 1 ) do_enq $end
$var wire 1 * is_full_next $end
$var wire 1 + is_full $end
$var wire 2 , enq_ptr_inc $end
$var wire 2 - deq_ptr_inc $end
$var wire 2 . deq_ptr $end
$var wire 2 / enq_ptr $end
$var wire 32 0 io_enq_dat $end
$var wire 32 1 io_deq_dat $end
$upscope $end
$enddefinitions $end
$dumpvars
$end
#0
b1 !
b1 "
b1 #
b0 $
b0 %
b0 &
b0 '
b1 (
b0 )
b0 *
b0 +
b01 ,
b01 -
b00 .
b00 /
b00000000000000000000000000000000 0
b00000000000000000000000000000000 1
#1
b0 !
#2
b1 !
b1 "
#3
b0 !
#4
b1 !
#5
b0 !
#6
b1 !
#7
b0 !
#8
b1 !
#9
b0 !
#10
b1 !
b0 "
b0 '
#11
b0 !
#12
b1 !
b1 '
b1 )
#13
b0 !
#14
b1 !
b0 #
b1 $
b0 '
b0 )
b10 ,
b01 /
#15
b0 !
#16
b1 !
b1 '
b1 )
#17
b0 !
#18
b1 !
b0 '
b0 )
b11 ,
b10 /
#19
b0 !
#20
b1 !
b1 '
b1 )
#21
b0 !
#22
b1 !
b0 '
b0 )
b00 ,
b11 /
#23
b0 !
#24
b1 !
b1 '
b1 )
b1 *
#25
b0 !
#26
b1 !
b0 '
b0 (
b0 )
b1 +
b01 ,
b00 /
#27
b0 !
#28
b1 !
#29
b0 !
#30
b1 !
#31
b0 !
#32
b1 !
#33
b0 !
#34
b1 !
#35
b0 !
#36
b1 !
#37
b0 !
#38
b1 !
#39
b0 !
#40
b1 !
#41
b0 !
#42
b1 !
#43
b0 !
#44
b1 !
#45
b0 !
#46
b1 !
#47
b0 !
#48
b1 !
#49
b0 !
#50
b1 !
#51
b0 !
#52
b1 !
#53
b0 !
#54
b1 !
#55
b0 !
#56
b1 !
#57
b0 !
#58
b1 !
#59
b0 !
#60
b1 !
#61
b0 !
#62
b1 !
#63
b0 !
#64
b1 !
#65
b0 !
#66
b1 !
#67
b0 !
#68
b1 !
b1 %
b1 &
b0 *
#69
b0 !
#70
b1 !
b0 %
b0 &
b1 (
b0 +
b10 -
b01 .
#71
b0 !
#72
b1 !
b1 %
b1 &
#73
b0 !
#74
b1 !
b0 %
b0 &
b11 -
b10 .
#75
b0 !
#76
b1 !
b1 %
b1 &
#77
b0 !
#78
b1 !
b0 %
b0 &
b00 -
b11 .
#79
b0 !
#80
b1 !
b1 %
b1 &
#81
b0 !
#82
b1 !
b1 #
b0 $
b0 %
b0 &
b01 -
b00 .
#83
b0 !
#84
b1 !
#85
b0 !
